{
    "name": "Shadowrun5-Fr",
    "title": "SR5 system - FR translation",
    "description": "<p>Add French (FRANCE) language to system for shadowrun5</p>",
    "version": "0.1",
    "minimumCoreVersion": "0.4.5",
    "author": "Rwanoux",

    "scripts": [
        "./babele-register.js"
    ],
    "styles": [],
    "packs": [],

    "languages": [{
        "lang": "fr",
        "name": "French (FRANCE)",
        "path": "fr.json"
    }],

    "url": "https://gitlab.com/lemaire.erw/shadowrun5-fr",
    "manifest": "https://gitlab.com/lemaire.erw/shadowrun5-fr/-/raw/master/module.json",
    "download": "https://gitlab.com/lemaire.erw/shadowrun5-fr/-/raw/master/Shadowrun5-Fr.zip?inline=false"
}